%YAML 1.1
%TAG !u! tag:unity3d.com,2011:
--- !u!29 &1
OcclusionCullingSettings:
  m_ObjectHideFlags: 0
  serializedVersion: 2
  m_OcclusionBakeSettings:
    smallestOccluder: 5
    smallestHole: 0.25
    backfaceThreshold: 100
  m_SceneGUID: 00000000000000000000000000000000
  m_OcclusionCullingData: {fileID: 0}
--- !u!104 &2
RenderSettings:
  m_ObjectHideFlags: 0
  serializedVersion: 9
  m_Fog: 0
  m_FogColor: {r: 0.5, g: 0.5, b: 0.5, a: 1}
  m_FogMode: 3
  m_FogDensity: 0.01
  m_LinearFogStart: 0
  m_LinearFogEnd: 300
  m_AmbientSkyColor: {r: 0.212, g: 0.227, b: 0.259, a: 1}
  m_AmbientEquatorColor: {r: 0.114, g: 0.125, b: 0.133, a: 1}
  m_AmbientGroundColor: {r: 0.047, g: 0.043, b: 0.035, a: 1}
  m_AmbientIntensity: 1
  m_AmbientMode: 0
  m_SubtractiveShadowColor: {r: 0.42, g: 0.478, b: 0.627, a: 1}
  m_SkyboxMaterial: {fileID: 10304, guid: 0000000000000000f000000000000000, type: 0}
  m_HaloStrength: 0.5
  m_FlareStrength: 1
  m_FlareFadeSpeed: 3
  m_HaloTexture: {fileID: 0}
  m_SpotCookie: {fileID: 10001, guid: 0000000000000000e000000000000000, type: 0}
  m_DefaultReflectionMode: 0
  m_DefaultReflectionResolution: 128
  m_ReflectionBounces: 1
  m_ReflectionIntensity: 1
  m_CustomReflection: {fileID: 0}
  m_Sun: {fileID: 170076734}
  m_IndirectSpecularColor: {r: 0.44657826, g: 0.49641263, b: 0.57481676, a: 1}
  m_UseRadianceAmbientProbe: 0
--- !u!157 &3
LightmapSettings:
  m_ObjectHideFlags: 0
  serializedVersion: 11
  m_GIWorkflowMode: 0
  m_GISettings:
    serializedVersion: 2
    m_BounceScale: 1
    m_IndirectOutputScale: 1
    m_AlbedoBoost: 1
    m_EnvironmentLightingMode: 0
    m_EnableBakedLightmaps: 1
    m_EnableRealtimeLightmaps: 0
  m_LightmapEditorSettings:
    serializedVersion: 10
    m_Resolution: 2
    m_BakeResolution: 10
    m_AtlasSize: 512
    m_AO: 0
    m_AOMaxDistance: 1
    m_CompAOExponent: 1
    m_CompAOExponentDirect: 0
    m_Padding: 2
    m_LightmapParameters: {fileID: 0}
    m_LightmapsBakeMode: 1
    m_TextureCompression: 1
    m_FinalGather: 0
    m_FinalGatherFiltering: 1
    m_FinalGatherRayCount: 256
    m_ReflectionCompression: 2
    m_MixedBakeMode: 2
    m_BakeBackend: 1
    m_PVRSampling: 1
    m_PVRDirectSampleCount: 32
    m_PVRSampleCount: 256
    m_PVRBounces: 2
    m_PVRFilterTypeDirect: 0
    m_PVRFilterTypeIndirect: 0
    m_PVRFilterTypeAO: 0
    m_PVRFilteringMode: 1
    m_PVRCulling: 1
    m_PVRFilteringGaussRadiusDirect: 1
    m_PVRFilteringGaussRadiusIndirect: 5
    m_PVRFilteringGaussRadiusAO: 2
    m_PVRFilteringAtrousPositionSigmaDirect: 0.5
    m_PVRFilteringAtrousPositionSigmaIndirect: 2
    m_PVRFilteringAtrousPositionSigmaAO: 1
    m_ShowResolutionOverlay: 1
  m_LightingDataAsset: {fileID: 0}
  m_UseShadowmask: 1
--- !u!196 &4
NavMeshSettings:
  serializedVersion: 2
  m_ObjectHideFlags: 0
  m_BuildSettings:
    serializedVersion: 2
    agentTypeID: 0
    agentRadius: 0.5
    agentHeight: 2
    agentSlope: 45
    agentClimb: 0.4
    ledgeDropHeight: 0
    maxJumpAcrossDistance: 0
    minRegionArea: 2
    manualCellSize: 0
    cellSize: 0.16666667
    manualTileSize: 0
    tileSize: 256
    accuratePlacement: 0
    debug:
      m_Flags: 0
  m_NavMeshData: {fileID: 0}
--- !u!1 &170076733
GameObject:
  m_ObjectHideFlags: 0
  m_CorrespondingSourceObject: {fileID: 0}
  m_PrefabInstance: {fileID: 0}
  m_PrefabAsset: {fileID: 0}
  serializedVersion: 6
  m_Component:
  - component: {fileID: 170076735}
  - component: {fileID: 170076734}
  m_Layer: 0
  m_Name: Directional Light
  m_TagString: Untagged
  m_Icon: {fileID: 0}
  m_NavMeshLayer: 0
  m_StaticEditorFlags: 0
  m_IsActive: 1
--- !u!108 &170076734
Light:
  m_ObjectHideFlags: 0
  m_CorrespondingSourceObject: {fileID: 0}
  m_PrefabInstance: {fileID: 0}
  m_PrefabAsset: {fileID: 0}
  m_GameObject: {fileID: 170076733}
  m_Enabled: 1
  serializedVersion: 8
  m_Type: 1
  m_Color: {r: 1, g: 0.95686275, b: 0.8392157, a: 1}
  m_Intensity: 1
  m_Range: 10
  m_SpotAngle: 30
  m_CookieSize: 10
  m_Shadows:
    m_Type: 2
    m_Resolution: -1
    m_CustomResolution: -1
    m_Strength: 1
    m_Bias: 0.05
    m_NormalBias: 0.4
    m_NearPlane: 0.2
  m_Cookie: {fileID: 0}
  m_DrawHalo: 0
  m_Flare: {fileID: 0}
  m_RenderMode: 0
  m_CullingMask:
    serializedVersion: 2
    m_Bits: 4294967295
  m_Lightmapping: 1
  m_LightShadowCasterMode: 0
  m_AreaSize: {x: 1, y: 1}
  m_BounceIntensity: 1
  m_ColorTemperature: 6570
  m_UseColorTemperature: 0
  m_ShadowRadius: 0
  m_ShadowAngle: 0
--- !u!4 &170076735
Transform:
  m_ObjectHideFlags: 0
  m_CorrespondingSourceObject: {fileID: 0}
  m_PrefabInstance: {fileID: 0}
  m_PrefabAsset: {fileID: 0}
  m_GameObject: {fileID: 170076733}
  m_LocalRotation: {x: 0.40821788, y: -0.23456968, z: 0.10938163, w: 0.8754261}
  m_LocalPosition: {x: 0, y: 3, z: 0}
  m_LocalScale: {x: 1, y: 1, z: 1}
  m_Children: []
  m_Father: {fileID: 0}
  m_RootOrder: 3
  m_LocalEulerAnglesHint: {x: 50, y: -30, z: 0}
--- !u!1001 &356436129
PrefabInstance:
  m_ObjectHideFlags: 0
  serializedVersion: 2
  m_Modification:
    m_TransformParent: {fileID: 0}
    m_Modifications:
    - target: {fileID: 100000, guid: f29ff5622176a9b469bde81acde00595, type: 3}
      propertyPath: m_Name
      value: planet
      objectReference: {fileID: 0}
    - target: {fileID: 400000, guid: f29ff5622176a9b469bde81acde00595, type: 3}
      propertyPath: m_LocalPosition.x
      value: 0.59916
      objectReference: {fileID: 0}
    - target: {fileID: 400000, guid: f29ff5622176a9b469bde81acde00595, type: 3}
      propertyPath: m_LocalPosition.y
      value: -3.9974
      objectReference: {fileID: 0}
    - target: {fileID: 400000, guid: f29ff5622176a9b469bde81acde00595, type: 3}
      propertyPath: m_LocalPosition.z
      value: 2.5611
      objectReference: {fileID: 0}
    - target: {fileID: 400000, guid: f29ff5622176a9b469bde81acde00595, type: 3}
      propertyPath: m_LocalRotation.x
      value: -0.7791691
      objectReference: {fileID: 0}
    - target: {fileID: 400000, guid: f29ff5622176a9b469bde81acde00595, type: 3}
      propertyPath: m_LocalRotation.y
      value: 0.16609131
      objectReference: {fileID: 0}
    - target: {fileID: 400000, guid: f29ff5622176a9b469bde81acde00595, type: 3}
      propertyPath: m_LocalRotation.z
      value: 0.25375542
      objectReference: {fileID: 0}
    - target: {fileID: 400000, guid: f29ff5622176a9b469bde81acde00595, type: 3}
      propertyPath: m_LocalRotation.w
      value: 0.5485594
      objectReference: {fileID: 0}
    - target: {fileID: 400000, guid: f29ff5622176a9b469bde81acde00595, type: 3}
      propertyPath: m_RootOrder
      value: 2
      objectReference: {fileID: 0}
    - target: {fileID: 400000, guid: f29ff5622176a9b469bde81acde00595, type: 3}
      propertyPath: m_LocalEulerAnglesHint.x
      value: -110.092995
      objectReference: {fileID: 0}
    - target: {fileID: 400000, guid: f29ff5622176a9b469bde81acde00595, type: 3}
      propertyPath: m_LocalEulerAnglesHint.y
      value: 38.362
      objectReference: {fileID: 0}
    - target: {fileID: 400000, guid: f29ff5622176a9b469bde81acde00595, type: 3}
      propertyPath: m_LocalEulerAnglesHint.z
      value: -3.2659912
      objectReference: {fileID: 0}
    - target: {fileID: 400000, guid: f29ff5622176a9b469bde81acde00595, type: 3}
      propertyPath: m_LocalScale.x
      value: 2049.6206
      objectReference: {fileID: 0}
    - target: {fileID: 400000, guid: f29ff5622176a9b469bde81acde00595, type: 3}
      propertyPath: m_LocalScale.y
      value: 2049.6206
      objectReference: {fileID: 0}
    - target: {fileID: 400000, guid: f29ff5622176a9b469bde81acde00595, type: 3}
      propertyPath: m_LocalScale.z
      value: 2049.6206
      objectReference: {fileID: 0}
    m_RemovedComponents: []
  m_SourcePrefab: {fileID: 100100000, guid: f29ff5622176a9b469bde81acde00595, type: 3}
--- !u!1001 &487406994
PrefabInstance:
  m_ObjectHideFlags: 0
  serializedVersion: 2
  m_Modification:
    m_TransformParent: {fileID: 0}
    m_Modifications:
    - target: {fileID: 100010, guid: 3b2c8c46acedfc440a986119d4f7035c, type: 3}
      propertyPath: m_Name
      value: rose
      objectReference: {fileID: 0}
    - target: {fileID: 400010, guid: 3b2c8c46acedfc440a986119d4f7035c, type: 3}
      propertyPath: m_LocalPosition.x
      value: 1.5
      objectReference: {fileID: 0}
    - target: {fileID: 400010, guid: 3b2c8c46acedfc440a986119d4f7035c, type: 3}
      propertyPath: m_LocalPosition.y
      value: 5.9
      objectReference: {fileID: 0}
    - target: {fileID: 400010, guid: 3b2c8c46acedfc440a986119d4f7035c, type: 3}
      propertyPath: m_LocalPosition.z
      value: 21.9
      objectReference: {fileID: 0}
    - target: {fileID: 400010, guid: 3b2c8c46acedfc440a986119d4f7035c, type: 3}
      propertyPath: m_LocalRotation.x
      value: 0.27822864
      objectReference: {fileID: 0}
    - target: {fileID: 400010, guid: 3b2c8c46acedfc440a986119d4f7035c, type: 3}
      propertyPath: m_LocalRotation.y
      value: 0.23638834
      objectReference: {fileID: 0}
    - target: {fileID: 400010, guid: 3b2c8c46acedfc440a986119d4f7035c, type: 3}
      propertyPath: m_LocalRotation.z
      value: 0.27854475
      objectReference: {fileID: 0}
    - target: {fileID: 400010, guid: 3b2c8c46acedfc440a986119d4f7035c, type: 3}
      propertyPath: m_LocalRotation.w
      value: 0.8883255
      objectReference: {fileID: 0}
    - target: {fileID: 400010, guid: 3b2c8c46acedfc440a986119d4f7035c, type: 3}
      propertyPath: m_RootOrder
      value: 1
      objectReference: {fileID: 0}
    - target: {fileID: 400010, guid: 3b2c8c46acedfc440a986119d4f7035c, type: 3}
      propertyPath: m_LocalEulerAnglesHint.x
      value: 21.262001
      objectReference: {fileID: 0}
    - target: {fileID: 400010, guid: 3b2c8c46acedfc440a986119d4f7035c, type: 3}
      propertyPath: m_LocalEulerAnglesHint.y
      value: 38.095
      objectReference: {fileID: 0}
    - target: {fileID: 400010, guid: 3b2c8c46acedfc440a986119d4f7035c, type: 3}
      propertyPath: m_LocalEulerAnglesHint.z
      value: 42.235
      objectReference: {fileID: 0}
    - target: {fileID: 400010, guid: 3b2c8c46acedfc440a986119d4f7035c, type: 3}
      propertyPath: m_LocalScale.x
      value: 13.768281
      objectReference: {fileID: 0}
    - target: {fileID: 400010, guid: 3b2c8c46acedfc440a986119d4f7035c, type: 3}
      propertyPath: m_LocalScale.y
      value: 13.768281
      objectReference: {fileID: 0}
    - target: {fileID: 400010, guid: 3b2c8c46acedfc440a986119d4f7035c, type: 3}
      propertyPath: m_LocalScale.z
      value: 13.768281
      objectReference: {fileID: 0}
    - target: {fileID: 2300000, guid: 3b2c8c46acedfc440a986119d4f7035c, type: 3}
      propertyPath: m_Materials.Array.data[0]
      value: 
      objectReference: {fileID: 2100000, guid: 1b8c5973972269b4fbbd4b7380e1f94b, type: 2}
    - target: {fileID: 2300002, guid: 3b2c8c46acedfc440a986119d4f7035c, type: 3}
      propertyPath: m_Materials.Array.data[0]
      value: 
      objectReference: {fileID: 2100000, guid: 90f52890a3f24d84f8d3a9df46aca2bf, type: 2}
    - target: {fileID: 2300004, guid: 3b2c8c46acedfc440a986119d4f7035c, type: 3}
      propertyPath: m_Materials.Array.data[0]
      value: 
      objectReference: {fileID: 2100000, guid: 90f52890a3f24d84f8d3a9df46aca2bf, type: 2}
    - target: {fileID: 2300006, guid: 3b2c8c46acedfc440a986119d4f7035c, type: 3}
      propertyPath: m_Materials.Array.data[0]
      value: 
      objectReference: {fileID: 2100000, guid: 90f52890a3f24d84f8d3a9df46aca2bf, type: 2}
    - target: {fileID: 2300008, guid: 3b2c8c46acedfc440a986119d4f7035c, type: 3}
      propertyPath: m_Materials.Array.data[0]
      value: 
      objectReference: {fileID: 2100000, guid: 90f52890a3f24d84f8d3a9df46aca2bf, type: 2}
    m_RemovedComponents: []
  m_SourcePrefab: {fileID: 100100000, guid: 3b2c8c46acedfc440a986119d4f7035c, type: 3}
--- !u!1 &534669902
GameObject:
  m_ObjectHideFlags: 0
  m_CorrespondingSourceObject: {fileID: 0}
  m_PrefabInstance: {fileID: 0}
  m_PrefabAsset: {fileID: 0}
  serializedVersion: 6
  m_Component:
  - component: {fileID: 534669905}
  - component: {fileID: 534669904}
  - component: {fileID: 534669903}
  m_Layer: 0
  m_Name: Main Camera
  m_TagString: MainCamera
  m_Icon: {fileID: 0}
  m_NavMeshLayer: 0
  m_StaticEditorFlags: 0
  m_IsActive: 1
--- !u!81 &534669903
AudioListener:
  m_ObjectHideFlags: 0
  m_CorrespondingSourceObject: {fileID: 0}
  m_PrefabInstance: {fileID: 0}
  m_PrefabAsset: {fileID: 0}
  m_GameObject: {fileID: 534669902}
  m_Enabled: 1
--- !u!20 &534669904
Camera:
  m_ObjectHideFlags: 0
  m_CorrespondingSourceObject: {fileID: 0}
  m_PrefabInstance: {fileID: 0}
  m_PrefabAsset: {fileID: 0}
  m_GameObject: {fileID: 534669902}
  m_Enabled: 1
  serializedVersion: 2
  m_ClearFlags: 1
  m_BackGroundColor: {r: 0.19215687, g: 0.3019608, b: 0.4745098, a: 0}
  m_projectionMatrixMode: 1
  m_SensorSize: {x: 36, y: 24}
  m_LensShift: {x: 0, y: 0}
  m_GateFitMode: 2
  m_FocalLength: 50
  m_NormalizedViewPortRect:
    serializedVersion: 2
    x: 0
    y: 0
    width: 1
    height: 1
  near clip plane: 0.3
  far clip plane: 1000
  field of view: 60
  orthographic: 0
  orthographic size: 5
  m_Depth: -1
  m_CullingMask:
    serializedVersion: 2
    m_Bits: 4294967295
  m_RenderingPath: -1
  m_TargetTexture: {fileID: 0}
  m_TargetDisplay: 0
  m_TargetEye: 3
  m_HDR: 1
  m_AllowMSAA: 1
  m_AllowDynamicResolution: 0
  m_ForceIntoRT: 0
  m_OcclusionCulling: 1
  m_StereoConvergence: 10
  m_StereoSeparation: 0.022
--- !u!4 &534669905
Transform:
  m_ObjectHideFlags: 0
  m_CorrespondingSourceObject: {fileID: 0}
  m_PrefabInstance: {fileID: 0}
  m_PrefabAsset: {fileID: 0}
  m_GameObject: {fileID: 534669902}
  m_LocalRotation: {x: 0, y: 0, z: 0, w: 1}
  m_LocalPosition: {x: 0, y: 1, z: -10}
  m_LocalScale: {x: 1, y: 1, z: 1}
  m_Children: []
  m_Father: {fileID: 0}
  m_RootOrder: 0
  m_LocalEulerAnglesHint: {x: 0, y: 0, z: 0}
--- !u!1 &2037839390
GameObject:
  m_ObjectHideFlags: 0
  m_CorrespondingSourceObject: {fileID: 0}
  m_PrefabInstance: {fileID: 0}
  m_PrefabAsset: {fileID: 0}
  serializedVersion: 6
  m_Component:
  - component: {fileID: 2037839394}
  - component: {fileID: 2037839393}
  - component: {fileID: 2037839392}
  - component: {fileID: 2037839391}
  m_Layer: 0
  m_Name: Plane
  m_TagString: Untagged
  m_Icon: {fileID: 0}
  m_NavMeshLayer: 0
  m_StaticEditorFlags: 0
  m_IsActive: 1
--- !u!64 &2037839391
MeshCollider:
  m_ObjectHideFlags: 0
  m_CorrespondingSourceObject: {fileID: 0}
  m_PrefabInstance: {fileID: 0}
  m_PrefabAsset: {fileID: 0}
  m_GameObject: {fileID: 2037839390}
  m_Material: {fileID: 0}
  m_IsTrigger: 0
  m_Enabled: 1
  serializedVersion: 3
  m_Convex: 0
  m_CookingOptions: 14
  m_Mesh: {fileID: 10209, guid: 0000000000000000e000000000000000, type: 0}
--- !u!23 &2037839392
MeshRenderer:
  m_ObjectHideFlags: 0
  m_CorrespondingSourceObject: {fileID: 0}
  m_PrefabInstance: {fileID: 0}
  m_PrefabAsset: {fileID: 0}
  m_GameObject: {fileID: 2037839390}
  m_Enabled: 1
  m_CastShadows: 1
  m_ReceiveShadows: 1
  m_DynamicOccludee: 1
  m_MotionVectors: 1
  m_LightProbeUsage: 1
  m_ReflectionProbeUsage: 1
  m_RenderingLayerMask: 1
  m_RendererPriority: 0
  m_Materials:
  - {fileID: 2100000, guid: 94fe920acc6b70a44a104be28ee4569f, type: 2}
  m_StaticBatchInfo:
    firstSubMesh: 0
    subMeshCount: 0
  m_StaticBatchRoot: {fileID: 0}
  m_ProbeAnchor: {fileID: 0}
  m_LightProbeVolumeOverride: {fileID: 0}
  m_ScaleInLightmap: 1
  m_PreserveUVs: 0
  m_IgnoreNormalsForChartDetection: 0
  m_ImportantGI: 0
  m_StitchLightmapSeams: 0
  m_SelectedEditorRenderState: 3
  m_MinimumChartSize: 4
  m_AutoUVMaxDistance: 0.5
  m_AutoUVMaxAngle: 89
  m_LightmapParameters: {fileID: 0}
  m_SortingLayerID: 0
  m_SortingLayer: 0
  m_SortingOrder: 0
--- !u!33 &2037839393
MeshFilter:
  m_ObjectHideFlags: 0
  m_CorrespondingSourceObject: {fileID: 0}
  m_PrefabInstance: {fileID: 0}
  m_PrefabAsset: {fileID: 0}
  m_GameObject: {fileID: 2037839390}
  m_Mesh: {fileID: 10209, guid: 0000000000000000e000000000000000, type: 0}
--- !u!4 &2037839394
Transform:
  m_ObjectHideFlags: 0
  m_CorrespondingSourceObject: {fileID: 0}
  m_PrefabInstance: {fileID: 0}
  m_PrefabAsset: {fileID: 0}
  m_GameObject: {fileID: 2037839390}
  m_LocalRotation: {x: 0.6426904, y: 0.3014412, z: -0.2782411, w: 0.6470426}
  m_LocalPosition: {x: 0, y: 0, z: 0}
  m_LocalScale: {x: 17.86776, y: 3.8893976, z: 11.842463}
  m_Children: []
  m_Father: {fileID: 0}
  m_RootOrder: 4
  m_LocalEulerAnglesHint: {x: 91.912994, y: -76.423004, z: -124.826996}
